﻿[
  {
    "a": {
"identity": 8,
"labels": [
        "Person"
      ],
"properties": {
"name": "Emil Eifrem",
"born": 1978
      }
    }
  },
  {
    "a": {
"identity": 4,
"labels": [
        "Person"
      ],
"properties": {
"name": "Hugo Weaving",
"born": 1960
      }
    }
  },
  {
    "a": {
"identity": 3,
"labels": [
        "Person"
      ],
"properties": {
"name": "Laurence Fishburne",
"born": 1961
      }
    }
  },
  {
    "a": {
"identity": 2,
"labels": [
        "Person"
      ],
"properties": {
"name": "Carrie-Anne Moss",
"born": 1967
      }
    }
  },
  {
    "a": {
"identity": 1,
"labels": [
        "Person"
      ],
"properties": {
"name": "Keanu Reeves",
"born": 1964
      }
    }
  }
]